                                                                                                                                                  /
            ~~~~                              MAR DE LOS DIOSES              ~~~~                          ~~~~                                  _|
                         ~~~                                                                                                   ~~~           ~~  |
~~                                       ~~~~                        __               ~~               ~~~~                      _______________/
  ~~~~                                                         _____/  \______   ~~~~                       ___            __   /
                                            ~~               _/               \____________________________/   \__________/  \_/
__________      ~~~~~~~~~~  ~~      ~~         _____________/                   
          \___________________________________/                      











                                                                          ______
                                                                        _(       )___
                                                                       ( Cerro de los )__
                                                                      (   gigantes  __   _)
                                                                     (  __      ____) (_)
                                                                      (_) (____)

                                                         *
                                                         |
                                                        (^)
                                                     /\/| |/\/\
                                                  /\/   |_|    \
                                                  | Dircin'Gah___\
                                                  \_________/




                                                                           _ 
                                                                     ( )__| |__( )
                                                                       /       \
                                                                      |         |
                                                   ________          | |       | |
                                                  /        \__/\     | |Bastion| |
                                                  \             |    | |       | |
                                      *************| Cementerio |     |         |                         
                                      *Cavernas***/             |      \__   __/
                                      ************|_______/\____|    ( )  |_|  ( )
         
         










